ece284fa24/hardware/wk1/hw1/mac_tb.vcd
$date
	Fri Oct  4 19:25:18 2024
$end
$version
	Icarus Verilog
$end
$timescale
	1s
$end
$scope module mac_tb $end
$var wire 16 ! out [15:0] $end
$var reg 1 " acc $end
$var reg 1 # clk $end
$var reg 1 $ format $end
$var reg 8 % in1 [7:0] $end
$var reg 8 & in2 [7:0] $end
$var reg 1 ' reset $end
$var integer 32 ( i [31:0] $end
$var integer 32 ) in1_dec [31:0] $end
$var integer 32 * in1_file [31:0] $end
$var integer 32 + in1_scan_file [31:0] $end
$var integer 32 , in1_sm_file [31:0] $end
$var integer 32 - in2_dec [31:0] $end
$var integer 32 . in2_file [31:0] $end
$var integer 32 / in2_scan_file [31:0] $end
$var integer 32 0 in2_sm_file [31:0] $end
$var integer 32 1 u [31:0] $end
$scope function dec2bin $end
$var reg 8 2 dec2bin [7:0] $end
$var integer 32 3 weight [31:0] $end
$upscope $end
$scope function to_sign_magnitude $end
$var reg 8 4 result [7:0] $end
$var reg 8 5 to_sign_magnitude [7:0] $end
$var integer 32 6 decimal [31:0] $end
$upscope $end
$scope module mac_instance $end
$var wire 8 7 A [7:0] $end
$var wire 8 8 B [7:0] $end
$var wire 1 " acc $end
$var wire 1 # clk $end
$var wire 1 $ format $end
$var wire 16 9 out [15:0] $end
$var wire 1 ' reset $end
$var wire 2 : case_input [1:0] $end
$var reg 8 ; a_q [7:0] $end
$var reg 8 < b_q [7:0] $end
$var reg 16 = psum_int [15:0] $end
$var reg 16 > psum_q [15:0] $end
$upscope $end
$upscope $end
$enddefinitions $end
#0
$dumpvars
bx >
bx =
bx <
bx ;
bx :
bx 9
b0 8
b0 7
bx 6
bx 5
bx 4
bx 3
bx 2
bx 1
b10000000000000000000000000000110 0
bx /
b10000000000000000000000000000100 .
bx -
b10000000000000000000000000000101 ,
bx +
b10000000000000000000000000000011 *
bx )
bx (
x'
b0 &
b0 %
x$
0#
x"
bx !
$end
#1
b0 =
b0 <
b0 ;
b0 !
b0 9
b0 >
b0x :
0$
1'
#2
1#
#3
0#
#4
1#
#5
b0 (
0'
0#
#6
1#
#7
b1 (
b11111111 &
b11111111 8
b1 /
b11111111111111111111111111111111 -
b1010 %
b1010 7
b11111111111111111111111111111111 1
b11111111 2
b0 3
b1 +
b1010 )
b1 :
1"
0#
#8
b1111111111110110 =
b11111111 <
b1010 ;
1#
#9
b10 (
b11 &
b11 8
b11 -
b11111011 %
b11111011 7
b11 2
b11111111111111111111111111111111 1
b0 3
b11111111111111111111111111111011 )
0#
#10
b1111111111100111 =
b11 <
b11111011 ;
b1111111111110110 !
b1111111111110110 9
b1111111111110110 >
1#
#11
b11 (
b11111011 &
b11111011 8
b11111111111111111111111111111011 -
b11110110 %
b11110110 7
b11111111111111111111111111111111 1
b11111011 2
b0 3
b11111111111111111111111111110110 )
0#
#12
b11001 =
b11111011 <
b11110110 ;
b1111111111100111 !
b1111111111100111 9
b1111111111100111 >
1#
#13
b100 (
b11111010 &
b11111010 8
b11111111111111111111111111111010 -
b100 %
b100 7
b11111111111111111111111111111111 1
b11111010 2
b0 3
b100 )
0#
#14
b1 =
b11111010 <
b100 ;
b11001 !
b11001 9
b11001 >
1#
#15
b101 (
b100 &
b100 8
b100 2
b100 -
b11111010 %
b11111010 7
b11111111111111111111111111111111 1
b0 3
b11111111111111111111111111111010 )
0#
#16
b1111111111101001 =
b100 <
b11111010 ;
b1 !
b1 9
b1 >
1#
#17
b110 (
b11111000 &
b11111000 8
b11111111111111111111111111111000 -
b11111111 %
b11111111 7
b11111111111111111111111111111111 1
b11111000 2
b0 3
b11111111111111111111111111111111 )
0#
#18
b1111111111110001 =
b11111000 <
b11111111 ;
b1111111111101001 !
b1111111111101001 9
b1111111111101001 >
1#
#19
b111 (
b1010 &
b1010 8
b1010 -
b10 %
b10 7
b11111111111111111111111111111111 1
b1010 2
b0 3
b10 )
0#
#20
b101 =
b1010 <
b10 ;
b1111111111110001 !
b1111111111110001 9
b1111111111110001 >
1#
#21
b1000 (
b100 &
b100 8
b100 -
b11 %
b11 7
b100 2
b11111111111111111111111111111111 1
b0 3
b11 )
0#
#22
b10001 =
b100 <
b11 ;
b101 !
b101 9
b101 >
1#
#23
b1001 (
b11111010 &
b11111010 8
b11111111111111111111111111111010 -
b11110111 %
b11110111 7
b11111111111111111111111111111111 1
b11111010 2
b0 3
b11111111111111111111111111110111 )
0#
#24
b1000111 =
b11111010 <
b11110111 ;
b10001 !
b10001 9
b10001 >
1#
#25
b1010 (
b11111100 &
b11111100 8
b11111111111111111111111111111100 -
b11111110 %
b11111110 7
b11111100 2
b11111111111111111111111111111111 1
b0 3
b11111111111111111111111111111110 )
0#
#26
b1001111 =
b11111100 <
b11111110 ;
b1000111 !
b1000111 9
b1000111 >
1#
#27
b0 &
b0 8
b0 %
b0 7
0#
#28
b0 <
b0 ;
b1001111 !
b1001111 9
b1001111 >
1#
#29
b0 :
0"
0#
#30
1#
#31
b0 =
b0 !
b0 9
b0 >
1'
0#
#32
1#
#33
b0 (
0'
0#
#34
1#
#35
b1 (
b10000001 &
b10000001 8
b11111111111111111111111111111111 -
b1010 %
b1010 7
b10000001 5
b10000001 4
b11111111111111111111111111111111 6
b1010 )
1"
b11 :
1$
0#
#36
b1000000000001010 =
b10000001 <
b1010 ;
1#
#37
b10 (
b11 &
b11 8
b11 -
b10000101 %
b10000101 7
b11 5
b11 4
b11 6
b11111111111111111111111111111011 )
0#
#38
b1000000000011001 =
b11 <
b10000101 ;
b1000000000001010 !
b1000000000001010 9
b1000000000001010 >
1#
#39
b11 (
b10000101 &
b10000101 8
b11111111111111111111111111111011 -
b10001010 %
b10001010 7
b10000101 5
b10000101 4
b11111111111111111111111111111011 6
b11111111111111111111111111110110 )
0#
#40
b11001 =
b10000101 <
b10001010 ;
b1000000000011001 !
b1000000000011001 9
b1000000000011001 >
1#
#41
b100 (
b10000110 &
b10000110 8
b11111111111111111111111111111010 -
b100 %
b100 7
b10000110 5
b10000110 4
b11111111111111111111111111111010 6
b100 )
0#
#42
b1 =
b10000110 <
b100 ;
b11001 !
b11001 9
b11001 >
1#
#43
b101 (
b100 &
b100 8
b100 5
b100 4
b100 6
b100 -
b10000110 %
b10000110 7
b11111111111111111111111111111010 )
0#
#44
b1000000000010111 =
b100 <
b10000110 ;
b1 !
b1 9
b1 >
1#
#45
b110 (
b10001000 &
b10001000 8
b11111111111111111111111111111000 -
b10000001 %
b10000001 7
b10001000 5
b10001000 4
b11111111111111111111111111111000 6
b11111111111111111111111111111111 )
0#
#46
b1000000000001111 =
b10001000 <
b10000001 ;
b1000000000010111 !
b1000000000010111 9
b1000000000010111 >
1#
#47
b111 (
b1010 &
b1010 8
b1010 -
b10 %
b10 7
b1010 5
b1010 4
b1010 6
b10 )
0#
#48
b101 =
b1010 <
b10 ;
b1000000000001111 !
b1000000000001111 9
b1000000000001111 >
1#
#49
b1000 (
b100 &
b100 8
b100 -
b11 %
b11 7
b100 5
b100 4
b100 6
b11 )
0#
#50
b10001 =
b100 <
b11 ;
b101 !
b101 9
b101 >
1#
#51
b1001 (
b10000110 &
b10000110 8
b11111111111111111111111111111010 -
b10001001 %
b10001001 7
b10000110 5
b10000110 4
b11111111111111111111111111111010 6
b11111111111111111111111111110111 )
0#
#52
b1000111 =
b10000110 <
b10001001 ;
b10001 !
b10001 9
b10001 >
1#
#53
b1010 (
b10000100 &
b10000100 8
b11111111111111111111111111111100 -
b10000010 %
b10000010 7
b10000100 5
b10000100 4
b11111111111111111111111111111100 6
b11111111111111111111111111111110 )
0#
#54
b1001111 =
b10000100 <
b10000010 ;
b1000111 !
b1000111 9
b1000111 >
1#
#55
b0 &
b0 8
b0 %
b0 7
0#
#56
b0 <
b0 ;
b1001111 !
b1001111 9
b1001111 >
1#
#57
0$
b0 :
0"
0#
